…
The row names have been moved into a column called term, and the column names are simple and consistent (and can be accessed using \$).

Information about the model can be explored with 'augment'.
The function augments the original data with information from the model, such as the fitted values and residuals for each of the original points in the regression.


``` r
augment(reg_weight_height)
```

``` output
# A tibble: 845 × 9
   .rownames weight.kg. height.cm. .fitted  .resid    .hat .sigma    .cooksd
   <chr>          <dbl>      <dbl>   <dbl>   <dbl>   <dbl>  <dbl>      <dbl>
 1 1               84.4       186.    83.7   0.669 0.00353   18.5 0.00000234
 2 2               51.5       161.    75.9 -24.4   0.00181   18.4 0.00159   
 3 3               85.0       151.    72.8  12.1   0.00414   18.4 0.000904  
 4 4               72.0       175.    80.4  -8.42  0.00149   18.5 0.000156  
 5 5               70.9       170.    78.8  -7.94  0.00119   18.5 0.000110  
 6 7               48.7       156.    74.3 -25.6   0.00279   18.4 0.00271   
 7 8               82.3       168.    78.1   4.24  0.00121   18.5 0.0000321 
 8 9               68.0       171.    79.0 -10.9   0.00120   18.5 0.000212  
 9 11              88.4       156.    74.5  13.9   0.00265   18.4 0.000751  
10 13              71.0       168.    78.2  -7.24  0.00120   18.5 0.0000923 
# ℹ 835 more rows
# ℹ 1 more variable: .std.resid <dbl>
```
…
Use of 'augment':


``` r
augment(glmheightgender)
```

``` output
# A tibble: 920 × 9
   .rownames gender.M. height.cm. .fitted .resid    .hat .sigma  .cooksd
   <chr>         <int>      <dbl>   <dbl>  <dbl>   <dbl>  <dbl>    <dbl>
 1 1                 1       186.  0.177    1.10 0.00324   1.18 0.00136 
 2 2                 0       161.  0.113   -1.23 0.00169   1.18 0.000950
 3 3                 0       151.  0.0871  -1.21 0.00390   1.18 0.00214 
 4 4                 1       175.  0.150    1.11 0.00136   1.18 0.000588
 5 5                 1       170.  0.137    1.12 0.00109   1.18 0.000477
 6 7                 0       156.  0.0996  -1.22 0.00262   1.18 0.00146 
 7 8                 0       168.  0.130   -1.23 0.00111   1.18 0.000636
 8 9                 0       171.  0.138   -1.24 0.00110   1.18 0.000632
 9 11                1       156.  0.101    1.13 0.00248   1.18 0.00113 
10 13                0       168.  0.132   -1.23 0.00110   1.18 0.000630
# ℹ 910 more rows
# ℹ 1 more variable: .std.resid <dbl>
```
…
The 'augment' method is defined only for chi-squared tests, since there is no meaningful sense, for other tests, in which a hypothesis test produces output about each initial data point.


``` r
augment(chi_square_test)
```

``` output
# A tibble: 476 × 9
   Var1  Var2  .observed .prop .row.prop .col.prop .expected   .resid .std.resid
   <fct> <fct>     <int> <dbl>     <dbl>     <dbl>     <dbl>    <dbl>      <dbl>
 1 R0A   0             2 0.002     1       0.00401     0.998  1.00       1.42   
 2 R1A   0             1 0.001     0.143   0.00200     3.49  -1.33      -1.89   
 3 R1C   0             4 0.004     0.571   0.00802     3.49   0.271      0.385  
 4 R1D   0             1 0.001     0.5     0.00200     0.998  0.00200    0.00283
 5 R1E   0             0 0         0       0           2.00  -1.41      -2.00   
 6 R1F   0             2 0.002     1       0.00401     0.998  1.00       1.42   
 7 R1G   0             2 0.002     1       0.00401     0.998  1.00       1.42   
 8 R1H   0             0 0         0       0           1.50  -1.22      -1.73   
 9 R1J   0             4 0.004     0.571   0.00802     3.49   0.271      0.385  
10 R1K   0             2 0.002     0.667   0.00401     1.50   0.411      0.582  
# ℹ 466 more rows
```
…
